<define-tag pagetitle>DLA-1164-1 mupdf</define-tag>
<define-tag report_date>2017-11-7</define-tag>
<define-tag secrefs>CVE-2017-14687 CVE-2017-15587 Bug#877379 Bug#879055</define-tag>
<define-tag packages>mupdf</define-tag>
<define-tag isvulnerable>yes</define-tag>
<define-tag fixed>yes</define-tag>
<define-tag fixed-section>no</define-tag>

#use wml::debian::security

