<define-tag pagetitle>DLA-945-1 mysql-connector-java</define-tag>
<define-tag report_date>2017-5-16</define-tag>
<define-tag secrefs>CVE-2017-3523 CVE-2017-3586 CVE-2017-3589</define-tag>
<define-tag packages>mysql-connector-java</define-tag>
<define-tag isvulnerable>yes</define-tag>
<define-tag fixed>yes</define-tag>
<define-tag fixed-section>no</define-tag>

#use wml::debian::security

