<define-tag pagetitle>DLA-954-1 openjdk-7</define-tag>
<define-tag report_date>2017-5-26</define-tag>
<define-tag secrefs>CVE-2017-3509 CVE-2017-3511 CVE-2017-3526 CVE-2017-3533 CVE-2017-3539 CVE-2017-3544</define-tag>
<define-tag packages>openjdk-7</define-tag>
<define-tag isvulnerable>yes</define-tag>
<define-tag fixed>yes</define-tag>
<define-tag fixed-section>no</define-tag>

#use wml::debian::security

