<define-tag pagetitle>DLA-580-1 graphite2</define-tag>
<define-tag report_date>2016-8-1</define-tag>
<define-tag packages>graphite2</define-tag>
<define-tag isvulnerable>yes</define-tag>
<define-tag fixed>yes</define-tag>
<define-tag fixed-section>no</define-tag>

#use wml::debian::security

