<define-tag pagetitle>DLA-671-1 libxvmc</define-tag>
<define-tag report_date>2016-10-19</define-tag>
<define-tag secrefs>CVE-2016-7953</define-tag>
<define-tag packages>libxvmc</define-tag>
<define-tag isvulnerable>yes</define-tag>
<define-tag fixed>yes</define-tag>
<define-tag fixed-section>no</define-tag>

#use wml::debian::security

